id,username,event-1,event-2,event-3,event-4,event-5,event-6,event-7,event-8,event-9,event-10,product-1,product-2,product-3,product-4,product-5,product-6,product-7,product-8,product-9,product-10,page-1,page-2,page-3,page-4,page-5,Sessions with Event,Total Events,Adding a product on to the cart (Goal 4 Conversion Rate),Adding a product on to the cart (Goal 4 Completions),Sessions,Pages / Session
GA1.4.1067567989.1552128915,unregistered,Add to Cart Clicks,Adding a product to the cart from the shop,Viewing the details of a product from the homepage,,,,,,,,,,,,,,,,,,,,,,,1,4,100.00%,1,1,
GA1.4.1967798708.1552429510,unregistered,Adding products from the homepage,Adding products to the cart,Add to Cart Clicks,,,,,,,,2028,2027,,,,,,,,,,,,,,1,4,100.00%,1,3,
GA1.4.325380568.1551484654,unregistered,Viewing the details of a product from the homepage,Adding products to the cart,,,,,,,,,2031,,,,,,,,,,,,,,,1,4,100.00%,1,1,
GA1.4.1559954439.1551421318,unregistered,Viewing the details of a product from the homepage,Adding products from the homepage,Adding products to the cart,,,,,,,,2029,,,,,,,,,,,,,,,1,4,100.00%,1,1,
GA1.4.1762858320.1552177168,unregistered,Add to Cart Clicks,Adding products from the homepage,Adding products to the cart,,,,,,,,,,,,,,,,,,,,,,,1,4,100.00%,1,2,
GA1.4.1992154356.1552002115,unregistered,Add to Cart Clicks,Adding products from the homepage,Adding products to the cart,,,,,,,,,,,,,,,,,,,,,,,1,4,100.00%,1,2,
GA1.4.280356072.1552235284,unregistered,Add to Cart Clicks,Adding products from the homepage,Adding products to the cart,,,,,,,,,,,,,,,,,,,,,,,1,4,100.00%,1,2,
GA1.4.1038776620.1551902649,unregistered,Adding products from the homepage,Adding products to the cart,Viewing the details of a product from the homepage,,,,,,,,,,,,,,,,,,,,,,,1,4,100.00%,1,1,
GA1.4.1052039292.1553431569,unregistered,Add to Cart Clicks,Adding products from the homepage,Adding products to the cart,,,,,,,,,,,,,,,,,,,,,,,1,4,100.00%,1,1,
GA1.4.1093959307.1552075617,unregistered,Add to Cart Clicks,Adding products from the homepage,Adding products to the cart,removing product from cart from the cart page,,,,,,,,,,,,,,,,,,,,,,1,4,100.00%,1,1,
GA1.4.10974967.1553285041,unregistered,Add to Cart Clicks,Adding products from the homepage,Adding products to the cart,removing product from cart from the cart page,,,,,,,,,,,,,,,,,,,,,,1,4,100.00%,1,1,
GA1.4.1104297443.1552737468,unregistered,Add to Cart Clicks,Adding products from the homepage,Adding products to the cart,Go to the Checkout page,,,,,,,,,,,,,,,,,,,,,,1,4,100.00%,1,1,
GA1.4.1104981643.1553370012,unregistered,Add to Cart Clicks,Adding products from the homepage,Adding products to the cart,Viewing the details of a product from the homepage,,,,,,,,,,,,,,,,,,,,,,1,4,100.00%,1,1,
GA1.4.1107587.1552360533,unregistered,Add to Cart Clicks,Adding products from the homepage,Adding products to the cart,Viewing the details of a product from the homepage,,,,,,,,,,,,,,,,,,,,,,1,4,100.00%,1,1,
GA1.4.1116881453.1553231074,unregistered,Add to Cart Clicks,Adding products from the homepage,Adding products to the cart,,,,,,,,1056,,,,,,,,,,,,,,,1,4,100.00%,1,1,
GA1.4.1125075779.1553034864,unregistered,Add to Cart Clicks,Adding products from the homepage,Adding products to the cart,,,,,,,,,,,,,,,,,,,,,,,1,4,100.00%,1,1,
GA1.4.1127820774.1553040442,unregistered,Add to Cart Clicks,Adding products from the homepage,Adding products to the cart,Viewing the details of a product from the homepage,,,,,,,,,,,,,,,,,,,,,,1,4,100.00%,1,1,
GA1.4.1134251507.1552519127,unregistered,Add to Cart Clicks,Adding products from the homepage,Adding products to the cart,,,,,,,,,,,,,,,,,,,,,,,1,4,100.00%,1,1,
GA1.4.1138449789.1552917678,unregistered,Adding a product to the cart from the shop,Adding products from the homepage,Adding products to the cart,Go to the Checkout page,,,,,,,,,,,,,,,,,,,,,,1,4,100.00%,1,1,
GA1.4.1147381639.1552775493,unregistered,Adding products from the homepage,Adding products to the cart,,,,,,,,,,,,,,,,,,,,,,,,1,4,100.00%,1,1,
GA1.4.1154768048.1553517347,unregistered,Add to Cart Clicks,Adding products from the homepage,Adding products to the cart,Go to the Checkout page,,,,,,,,,,,,,,,,,,,,,,1,4,100.00%,1,1,
GA1.4.1163472843.1552742043,unregistered,Adding a product to the cart from the shop,Adding products from the homepage,Adding products to the cart,go to the shop from the home screen,,,,,,,,,,,,,,,,,,,,,,1,4,100.00%,1,1,
GA1.4.1185583954.1553352708,unregistered,Add to Cart Clicks,Adding products from the homepage,Adding products to the cart,,,,,,,,2031,,,,,,,,,,,,,,,1,4,100.00%,1,1,
GA1.4.1200467038.1552127281,unregistered,Add to Cart Clicks,Adding products from the homepage,Adding products to the cart,,,,,,,,,,,,,,,,,,,,,,,1,4,100.00%,1,1,
GA1.4.1217680053.1552361261,unregistered,Add to Cart Clicks,Adding products from the homepage,Adding products to the cart,,,,,,,,,,,,,,,,,,,,,,,1,4,100.00%,1,1,
GA1.4.1229911112.1553623993,unregistered,Add to Cart Clicks,Adding products from the homepage,Adding products to the cart,,,,,,,,2030,,,,,,,,,,,,,,,1,4,100.00%,1,1,
GA1.4.1248624786.1553636579,unregistered,Add to Cart Clicks,Adding products from the homepage,Adding products to the cart,,,,,,,,,,,,,,,,,,,,,,,1,4,100.00%,1,1,
GA1.4.1260731631.1553195748,unregistered,Add to Cart Clicks,Adding products from the homepage,Adding products to the cart,,,,,,,,1056,,,,,,,,,,,,,,,1,4,100.00%,1,1,
GA1.4.1261687169.1553224360,unregistered,Add to Cart Clicks,Adding products from the homepage,Adding products to the cart,,,,,,,,,,,,,,,,,,,,,,,1,4,100.00%,1,1,
GA1.4.1273651110.1553692375,unregistered,Add to Cart Clicks,Adding products from the homepage,Adding products to the cart,Viewing the details of a product from the homepage,,,,,,,,,,,,,,,,,,,,,,1,4,100.00%,1,1,
GA1.4.1273940128.1552984287,unregistered,Add to Cart Clicks,Adding products from the homepage,Adding products to the cart,,,,,,,,,,,,,,,,,,,,,,,1,4,100.00%,1,1,
GA1.4.1277703252.1552572960,unregistered,Add to Cart Clicks,Adding products from the homepage,Adding products to the cart,,,,,,,,,,,,,,,,,,,,,,,1,4,100.00%,1,1,
GA1.4.1281273861.1551954670,unregistered,Add to Cart Clicks,Adding products from the homepage,Adding products to the cart,,,,,,,,1056,,,,,,,,,,/my-account/,,,,,1,4,100.00%,1,1,1
GA1.4.1305560879.1552097931,unregistered,Add to Cart Clicks,Adding products from the homepage,Adding products to the cart,,,,,,,,,,,,,,,,,,,,,,,1,4,100.00%,1,1,
GA1.4.131562338.1552473484,unregistered,Add to Cart Clicks,Adding products from the homepage,Adding products to the cart,,,,,,,,284,,,,,,,,,,,,,,,1,4,100.00%,1,1,
GA1.4.1345638133.1552561327,unregistered,Add to Cart Clicks,Adding products from the homepage,Adding products to the cart,,,,,,,,,,,,,,,,,,,,,,,1,4,100.00%,1,1,
GA1.4.1349626962.1552429512,unregistered,Add to Cart Clicks,Adding products from the homepage,Adding products to the cart,,,,,,,,2029,,,,,,,,,,,,,,,1,4,100.00%,1,1,
GA1.4.1362770010.1553486092,unregistered,Add to Cart Clicks,Adding products from the homepage,Adding products to the cart,Viewing the details of a product from the homepage,,,,,,,,,,,,,,,,,,,,,,1,4,100.00%,1,1,
GA1.4.1372681450.1552682212,unregistered,Add to Cart Clicks,Adding products from the homepage,Adding products to the cart,,,,,,,,,,,,,,,,,,,,,,,1,4,100.00%,1,1,
GA1.4.137294350.1551757607,unregistered,Adding products from the homepage,Adding products to the cart,Viewing the details of a product from the homepage,,,,,,,,,,,,,,,,,,,,,,,1,4,100.00%,1,1,
GA1.4.1405702819.1552553528,unregistered,Add to Cart Clicks,Adding products from the homepage,Adding products to the cart,Viewing the details of a product from the homepage,,,,,,,,,,,,,,,,,,,,,,1,4,100.00%,1,1,
GA1.4.1411278183.1552749713,unregistered,Add to Cart Clicks,Adding products from the homepage,Adding products to the cart,,,,,,,,466,,,,,,,,,,,,,,,1,4,100.00%,1,1,
GA1.4.1414656616.1552940334,unregistered,Add to Cart Clicks,Adding products from the homepage,Adding products to the cart,,,,,,,,,,,,,,,,,,,,,,,1,4,100.00%,1,1,
GA1.4.1418512394.1553221994,unregistered,Adding products from the homepage,Adding products to the cart,,,,,,,,,1542,,,,,,,,,,/shop/,,,,,1,4,100.00%,1,1,1
GA1.4.142812832.1553180081,unregistered,Adding a product to the cart from the shop,Adding products from the homepage,Adding products to the cart,Go to the Checkout page,,,,,,,,,,,,,,,,,,,,,,1,4,100.00%,1,1,
GA1.4.1433802883.1552845310,unregistered,Add to Cart Clicks,Adding products from the homepage,Adding products to the cart,,,,,,,,2031,,,,,,,,,,,,,,,1,4,100.00%,1,1,
GA1.4.1451521732.1553090149,unregistered,Add to Cart Clicks,Adding products from the homepage,Adding products to the cart,,,,,,,,2027,,,,,,,,,,,,,,,1,4,100.00%,1,1,
GA1.4.1454302568.1552704366,unregistered,Adding a product to the cart from the shop,Adding products from the homepage,Adding products to the cart,,,,,,,,1149,,,,,,,,,,/cart/,,,,,1,4,100.00%,1,1,1
GA1.4.145783818.1553551601,unregistered,Add to Cart Clicks,Adding products from the homepage,Adding products to the cart,,,,,,,,,,,,,,,,,,,,,,,1,4,100.00%,1,1,
GA1.4.1481879166.1553368008,unregistered,Add to Cart Clicks,Adding products from the homepage,Adding products to the cart,Viewing the details of a product from the homepage,,,,,,,,,,,,,,,,,,,,,,1,4,100.00%,1,1,
GA1.4.1483342733.1552067877,unregistered,Add to Cart Clicks,Adding products from the homepage,Adding products to the cart,,,,,,,,1328,,,,,,,,,,,,,,,1,4,100.00%,1,1,
GA1.4.148460225.1552148886,unregistered,Add to Cart Clicks,Adding products from the homepage,Adding products to the cart,,,,,,,,,,,,,,,,,,,,,,,1,4,100.00%,1,1,
GA1.4.1487197887.1551430899,unregistered,Add to Cart Clicks,Adding products from the homepage,Adding products to the cart,,,,,,,,1328,,,,,,,,,,/my-account/,,,,,1,4,100.00%,1,1,1
GA1.4.1515956260.1552502570,unregistered,Add to Cart Clicks,Adding products from the homepage,Adding products to the cart,,,,,,,,,,,,,,,,,,,,,,,1,4,100.00%,1,1,
GA1.4.1520830984.1552961402,unregistered,Add to Cart Clicks,Adding products from the homepage,Adding products to the cart,,,,,,,,,,,,,,,,,,,,,,,1,4,100.00%,1,1,
GA1.4.1526973262.1553384271,unregistered,Add to Cart Clicks,Adding a product to the cart from the shop,Adding products from the homepage,Adding products to the cart,go to the shop from the home screen,,,,,,,,,,,,,,,,,,,,,1,4,100.00%,1,1,
GA1.4.1542688985.1552322312,unregistered,Add to Cart Clicks,Adding products from the homepage,Adding products to the cart,,,,,,,,1328,,,,,,,,,,,,,,,1,4,100.00%,1,1,
GA1.4.1556676959.1551495126,unregistered,Add to Cart Clicks,Adding products from the homepage,Adding products to the cart,,,,,,,,2030,,,,,,,,,,,,,,,1,4,100.00%,1,1,
GA1.4.1558770172.1551592278,unregistered,Add to Cart Clicks,Adding products from the homepage,Adding products to the cart,,,,,,,,469,,,,,,,,,,,,,,,1,4,100.00%,1,1,
GA1.4.1572011796.1545148593,unregistered,Add to Cart Clicks,Hovering in to the shop by category section,,,,,,,,,2031,,,,,,,,,,,,,,,1,4,100.00%,1,1,
GA1.4.1611140978.1552102821,unregistered,Add to Cart Clicks,Adding products from the homepage,Adding products to the cart,,,,,,,,,,,,,,,,,,,,,,,1,4,100.00%,1,1,
GA1.4.1614309320.1552352089,unregistered,Add to Cart Clicks,Adding products from the homepage,Adding products to the cart,,,,,,,,,,,,,,,,,,,,,,,1,4,100.00%,1,1,
GA1.4.1641681222.1553225274,unregistered,Add to Cart Clicks,Adding products from the homepage,Adding products to the cart,,,,,,,,2027,,,,,,,,,,,,,,,1,4,100.00%,1,1,
GA1.4.1641979461.1553441999,unregistered,Add to Cart Clicks,Adding products from the homepage,Adding products to the cart,,,,,,,,2031,,,,,,,,,,/cart/,,,,,1,4,100.00%,1,1,1
GA1.4.1654819938.1552017812,unregistered,Add to Cart Clicks,Adding products from the homepage,Adding products to the cart,,,,,,,,,,,,,,,,,,,,,,,1,4,100.00%,1,1,
GA1.4.1690526630.1552722890,unregistered,Add to Cart Clicks,Adding products from the homepage,Adding products to the cart,,,,,,,,,,,,,,,,,,,,,,,1,4,100.00%,1,1,
GA1.4.1691713639.1552451177,unregistered,Add to Cart Clicks,Adding products from the homepage,Adding products to the cart,,,,,,,,7,,,,,,,,,,,,,,,1,4,100.00%,1,1,
GA1.4.1699406688.1553286247,unregistered,Add to Cart Clicks,Adding products from the homepage,Adding products to the cart,,,,,,,,2030,,,,,,,,,,,,,,,1,4,100.00%,1,1,
GA1.4.1703636343.1553299639,unregistered,Add to Cart Clicks,Adding products from the homepage,Adding products to the cart,Go to the Checkout page,,,,,,,,,,,,,,,,,,,,,,1,4,100.00%,1,1,
GA1.4.170609529.1551607972,unregistered,Add to Cart Clicks,Adding products from the homepage,Adding products to the cart,,,,,,,,,,,,,,,,,,,,,,,1,4,100.00%,1,1,
GA1.4.1710478515.1552757627,unregistered,Adding products from the homepage,Adding products to the cart,Clicking on a product from the shop page,go to the shop from the home screen,,,,,,,,,,,,,,,,,,,,,,1,4,100.00%,1,1,
GA1.4.178790486.1552068958,unregistered,Adding a product to the cart from the shop,Adding products from the homepage,Adding products to the cart,go to the shop from the home screen,,,,,,,,,,,,,,,,,,,,,,1,4,100.00%,1,1,
GA1.4.1798366339.1551898495,unregistered,Add to Cart Clicks,Adding products from the homepage,Adding products to the cart,,,,,,,,965,,,,,,,,,,,,,,,1,4,100.00%,1,1,
GA1.4.1818527676.1553118336,unregistered,Add to Cart Clicks,Adding products from the homepage,Adding products to the cart,,,,,,,,695,,,,,,,,,,,,,,,1,4,100.00%,1,1,
GA1.4.1851618295.1552659891,unregistered,Add to Cart Clicks,Adding products from the homepage,Adding products to the cart,,,,,,,,,,,,,,,,,,,,,,,1,4,100.00%,1,1,
GA1.4.1862087057.1551526799,unregistered,Adding a product to the cart from the shop,Adding products from the homepage,Adding products to the cart,,,,,,,,1451,,,,,,,,,,/my-account/,,,,,1,4,100.00%,1,1,1
GA1.4.1867081662.1551544074,unregistered,Adding products from the homepage,Adding products to the cart,Viewing the details of a product from the homepage,,,,,,,,,,,,,,,,,,,,,,,1,4,100.00%,1,1,
GA1.4.1884759331.1552809114,unregistered,Add to Cart Clicks,Adding a product to the cart from the shop,Adding products from the homepage,Adding products to the cart,go to the shop from the home screen,,,,,,,,,,,,,,,,,,,,,1,4,100.00%,1,1,
GA1.4.1892986240.1552658289,unregistered,Add to Cart Clicks,Adding products from the homepage,Adding products to the cart,,,,,,,,2031,,,,,,,,,,/cart/,,,,,1,4,100.00%,1,1,1
GA1.4.1906571635.1553719547,unregistered,Adding a product to the cart from the shop,Adding products from the homepage,Adding products to the cart,Viewing the details of a product from the homepage,,,,,,,,,,,,,,,,,,,,,,1,4,100.00%,1,1,
GA1.4.1909141158.1551755388,unregistered,Add to Cart Clicks,Adding products from the homepage,Adding products to the cart,,,,,,,,,,,,,,,,,,,,,,,1,4,100.00%,1,1,
GA1.4.1909445392.1552835633,unregistered,Add to Cart Clicks,Adding a product to the cart from the shop,Adding products from the homepage,Adding products to the cart,go to the shop from the home screen,,,,,,,,,,,,,,,,,,,,,1,4,100.00%,1,1,
GA1.4.192564031.1552086943,unregistered,Adding products from the homepage,Adding products to the cart,Viewing the details of a product from the homepage,,,,,,,,,,,,,,,,,,,,,,,1,4,100.00%,1,1,
GA1.4.1954566281.1551607249,unregistered,Adding products from the homepage,Adding products to the cart,Viewing the details of a product from the homepage,,,,,,,,,,,,,,,,,,,,,,,1,4,100.00%,1,1,
GA1.4.1962630488.1553044937,unregistered,Add to Cart Clicks,Adding products from the homepage,Adding products to the cart,Viewing the details of a product from the homepage,,,,,,,,,,,,,,,,,,,,,,1,4,100.00%,1,1,
GA1.4.1963452618.1553549872,unregistered,Adding products from the homepage,Adding products to the cart,Viewing the details of a product from the homepage,,,,,,,,,,,,,,,,,,,,,,,1,4,100.00%,1,1,
GA1.4.1978747683.1553494552,unregistered,Adding a product to the cart from the shop,Adding products from the homepage,Adding products to the cart,,,,,,,,1341,,,,,,,,,,/cart/,,,,,1,4,100.00%,1,1,1
GA1.4.198687453.1551602281,unregistered,Add to Cart Clicks,Adding products from the homepage,Adding products to the cart,,,,,,,,1056,,,,,,,,,,/cart/,,,,,1,4,100.00%,1,1,1
GA1.4.200645544.1552601573,unregistered,Add to Cart Clicks,Adding products from the homepage,Adding products to the cart,Viewing the details of a product from the homepage,,,,,,,,,,,,,,,,,,,,,,1,4,100.00%,1,1,
GA1.4.2011623538.1553663398,unregistered,Add to Cart Clicks,Adding products from the homepage,Adding products to the cart,,,,,,,,,,,,,,,,,,,,,,,1,4,100.00%,1,1,
GA1.4.2029872034.1553413570,unregistered,Add to Cart Clicks,Adding products from the homepage,Adding products to the cart,Viewing the details of a product from the homepage,,,,,,,,,,,,,,,,,,,,,,1,4,100.00%,1,1,
GA1.4.204113472.1552927763,unregistered,Adding products from the homepage,Adding products to the cart,go to the shop from the home screen,Clicking on the next page of a product list,,,,,,,,,,,,,,,,,,,,,,1,4,100.00%,1,1,
GA1.4.2042423446.1552389781,unregistered,Adding products from the homepage,Adding products to the cart,Viewing the details of a product from the homepage,,,,,,,,,,,,,,,,,,,,,,,1,4,100.00%,1,1,
GA1.4.2058270301.1552670214,unregistered,Add to Cart Clicks,Adding products from the homepage,Adding products to the cart,,,,,,,,2028,,,,,,,,,,,,,,,1,4,100.00%,1,1,
GA1.4.2061979746.1553228025,unregistered,Adding products from the homepage,Adding products to the cart,Viewing the details of a product from the homepage,,,,,,,,,,,,,,,,,,,,,,,1,4,100.00%,1,1,
GA1.4.2068421255.1551935578,unregistered,Adding products from the homepage,Adding products to the cart,Viewing the details of a product from the homepage,,,,,,,,,,,,,,,,,,,,,,,1,4,100.00%,1,1,
GA1.4.2109454694.1551969090,unregistered,Adding products from the homepage,Adding products to the cart,Clicking on related products,Viewing the details of a product from the homepage,,,,,,,,,,,,,,,,,,,,,,1,4,100.00%,1,1,
GA1.4.2121906694.1552548488,unregistered,Adding a product to the cart from the shop,Adding products from the homepage,Adding products to the cart,go to the shop from the home screen,,,,,,,,,,,,,,,,,,,,,,1,4,100.00%,1,1,
GA1.4.2134985905.1553586748,unregistered,Adding products from the homepage,Adding products to the cart,Viewing the details of a product from the homepage,,,,,,,,,,,,,,,,,,,,,,,1,4,100.00%,1,1,
GA1.4.2141905267.1553436434,unregistered,Adding products from the homepage,Adding products to the cart,go to the shop from the home screen,Clicking on the next page of a product list,,,,,,,,,,,,,,,,,,,,,,1,4,100.00%,1,1,
GA1.4.2145885929.1551676509,unregistered,Add to Cart Clicks,Adding products from the homepage,Adding products to the cart,,,,,,,,2027,,,,,,,,,,,,,,,1,4,100.00%,1,1,
GA1.4.224479669.1551903200,unregistered,Adding a product to the cart from the shop,Adding products from the homepage,Adding products to the cart,Viewing the details of a product from the homepage,,,,,,,,,,,,,,,,,,,,,,1,4,100.00%,1,1,
GA1.4.256626103.1553505228,unregistered,Adding a product to the cart from the shop,Adding products from the homepage,Adding products to the cart,,,,,,,,377,,,,,,,,,,/cart/,,,,,1,4,100.00%,1,1,1
GA1.4.262775113.1552837548,unregistered,Add to Cart Clicks,Adding products from the homepage,Adding products to the cart,,,,,,,,,,,,,,,,,,,,,,,1,4,100.00%,1,1,
GA1.4.272196129.1553009997,unregistered,Add to Cart Clicks,Adding products from the homepage,Adding products to the cart,,,,,,,,1545,,,,,,,,,,,,,,,1,4,100.00%,1,1,
GA1.4.274690484.1552161872,unregistered,Add to Cart Clicks,Adding products from the homepage,Adding products to the cart,,,,,,,,,,,,,,,,,,,,,,,1,4,100.00%,1,1,
GA1.4.294523.1551451055,unregistered,Add to Cart Clicks,Adding products from the homepage,Adding products to the cart,Viewing the details of a product from the homepage,,,,,,,,,,,,,,,,,,,,,,1,4,100.00%,1,1,
GA1.4.297209374.1551669352,unregistered,Adding products from the homepage,Adding products to the cart,Viewing the details of a product from the homepage,,,,,,,,,,,,,,,,,,,,,,,1,4,100.00%,1,1,
GA1.4.299297930.1551842704,unregistered,Adding products from the homepage,Adding products to the cart,,,,,,,,,,,,,,,,,,,,,,,,1,4,100.00%,1,1,
GA1.4.299653378.1553076411,unregistered,Add to Cart Clicks,Adding products from the homepage,Adding products to the cart,,,,,,,,,,,,,,,,,,,,,,,1,4,100.00%,1,1,
GA1.4.301565858.1553395240,unregistered,Add to Cart Clicks,Adding products from the homepage,Adding products to the cart,,,,,,,,7,,,,,,,,,,,,,,,1,4,100.00%,1,1,
GA1.4.323346753.1552526869,unregistered,Add to Cart Clicks,Adding products from the homepage,Adding products to the cart,,,,,,,,2030,,,,,,,,,,/my-account/,,,,,1,4,100.00%,1,1,1
GA1.4.33441514.1553097836,unregistered,Adding a product to the cart from the shop,Adding products from the homepage,Adding products to the cart,go to the shop from the home screen,,,,,,,,,,,,,,,,,,,,,,1,4,100.00%,1,1,
GA1.4.343154133.1551743880,unregistered,Add to Cart Clicks,Adding products from the homepage,Adding products to the cart,,,,,,,,2030,,,,,,,,,,,,,,,1,4,100.00%,1,1,
GA1.4.355179772.1553283072,unregistered,Add to Cart Clicks,Adding a product to the cart from the shop,Adding products from the homepage,Adding products to the cart,go to the shop from the home screen,,,,,,,,,,,,,,,,,,,,,1,4,100.00%,1,1,
GA1.4.358061385.1552074917,unregistered,Add to Cart Clicks,Adding products from the homepage,Adding products to the cart,,,,,,,,1149,,,,,,,,,,,,,,,1,4,100.00%,1,1,
GA1.4.389189779.1552310879,unregistered,Add to Cart Clicks,Adding products from the homepage,Adding products to the cart,Viewing the details of a product from the homepage,,,,,,,,,,,,,,,,,,,,,,1,4,100.00%,1,1,
GA1.4.397891032.1552984450,unregistered,Add to Cart Clicks,Adding products from the homepage,Adding products to the cart,,,,,,,,,,,,,,,,,,,,,,,1,4,100.00%,1,1,
GA1.4.397943258.1551596632,unregistered,Adding products from the homepage,Adding products to the cart,Clicking on related products,Viewing the details of a product from the homepage,,,,,,,,,,,,,,,,,,,,,,1,4,100.00%,1,1,
GA1.4.411721708.1552113328,unregistered,Add to Cart Clicks,Adding products from the homepage,Adding products to the cart,Viewing the details of a product from the homepage,,,,,,,,,,,,,,,,,,,,,,1,4,100.00%,1,1,
GA1.4.42849654.1553340873,unregistered,Add to Cart Clicks,Adding products from the homepage,Adding products to the cart,,,,,,,,1056,,,,,,,,,,/my-account/,,,,,1,4,100.00%,1,1,1
GA1.4.4524267.1551917929,unregistered,Add to Cart Clicks,Adding products from the homepage,Adding products to the cart,,,,,,,,,,,,,,,,,,,,,,,1,4,100.00%,1,1,
GA1.4.499456710.1552674652,unregistered,Add to Cart Clicks,Adding products from the homepage,Adding products to the cart,,,,,,,,,,,,,,,,,,,,,,,1,4,100.00%,1,1,
GA1.4.507495754.1552553324,unregistered,Add to Cart Clicks,Adding products from the homepage,Adding products to the cart,,,,,,,,1870,,,,,,,,,,,,,,,1,4,100.00%,1,1,
GA1.4.511019980.1552665495,unregistered,Add to Cart Clicks,Adding products from the homepage,Adding products to the cart,,,,,,,,,,,,,,,,,,,,,,,1,4,100.00%,1,1,
GA1.4.521617759.1551667206,unregistered,Add to Cart Clicks,Adding products from the homepage,Adding products to the cart,,,,,,,,1056,,,,,,,,,,,,,,,1,4,100.00%,1,1,
GA1.4.523061508.1553648303,unregistered,Add to Cart Clicks,Adding products from the homepage,Adding products to the cart,,,,,,,,1328,,,,,,,,,,,,,,,1,4,100.00%,1,1,
GA1.4.524910275.1552963020,unregistered,Add to Cart Clicks,Adding products from the homepage,Adding products to the cart,,,,,,,,,,,,,,,,,,,,,,,1,4,100.00%,1,1,
GA1.4.56277569.1551647094,unregistered,Add to Cart Clicks,Adding products from the homepage,Adding products to the cart,,,,,,,,1056,,,,,,,,,,,,,,,1,4,100.00%,1,1,
GA1.4.582044108.1551596633,unregistered,Add to Cart Clicks,Adding products from the homepage,Adding products to the cart,,,,,,,,,,,,,,,,,,,,,,,1,4,100.00%,1,1,
GA1.4.592987823.1552133254,unregistered,Add to Cart Clicks,Adding products from the homepage,Adding products to the cart,Viewing the details of a product from the homepage,,,,,,,,,,,,,,,,,,,,,,1,4,100.00%,1,1,
GA1.4.604431270.1552095224,unregistered,Add to Cart Clicks,Adding products from the homepage,Adding products to the cart,Viewing the details of a product from the homepage,,,,,,,,,,,,,,,,,,,,,,1,4,100.00%,1,1,
GA1.4.614313157.1553486085,unregistered,Add to Cart Clicks,Adding products from the homepage,Adding products to the cart,,,,,,,,1328,,,,,,,,,,,,,,,1,4,100.00%,1,1,
GA1.4.618382473.1552566376,unregistered,Add to Cart Clicks,Adding products from the homepage,Adding products to the cart,,,,,,,,103,,,,,,,,,,,,,,,1,4,100.00%,1,1,
GA1.4.623572783.1552774910,unregistered,Add to Cart Clicks,Adding products from the homepage,Adding products to the cart,Viewing the details of a product from the homepage,,,,,,,,,,,,,,,,,,,,,,1,4,100.00%,1,1,
GA1.4.626405532.1553620758,unregistered,Add to Cart Clicks,Adding products from the homepage,Adding products to the cart,,,,,,,,,,,,,,,,,,,,,,,1,4,100.00%,1,1,
GA1.4.645108576.1553350087,unregistered,Adding products from the homepage,Adding products to the cart,Viewing the details of a product from the homepage,,,,,,,,,,,,,,,,,,,,,,,1,4,100.00%,1,1,
GA1.4.654892041.1551749887,unregistered,Add to Cart Clicks,Adding products from the homepage,Adding products to the cart,,,,,,,,2028,,,,,,,,,,,,,,,1,4,100.00%,1,1,
GA1.4.689371284.1551530410,unregistered,Add to Cart Clicks,Adding products from the homepage,Adding products to the cart,,,,,,,,,,,,,,,,,,,,,,,1,4,100.00%,1,1,
GA1.4.699119872.1552750266,unregistered,Add to Cart Clicks,Adding products from the homepage,Adding products to the cart,,,,,,,,2030,,,,,,,,,,,,,,,1,4,100.00%,1,1,
GA1.4.746469337.1552733338,unregistered,Add to Cart Clicks,Adding products from the homepage,Adding products to the cart,,,,,,,,,,,,,,,,,,,,,,,1,4,100.00%,1,1,
GA1.4.748590397.1552170286,unregistered,Adding products from the homepage,Adding products to the cart,go to the shop from the home screen,Clicking on the next page of a product list,,,,,,,,,,,,,,,,,,,,,,1,4,100.00%,1,1,
GA1.4.754204643.1552003800,unregistered,Add to Cart Clicks,Adding products from the homepage,Adding products to the cart,,,,,,,,,,,,,,,,,,,,,,,1,4,100.00%,1,1,
GA1.4.8000842.1552280882,unregistered,Add to Cart Clicks,Adding products from the homepage,Adding products to the cart,,,,,,,,2031,,,,,,,,,,,,,,,1,4,100.00%,1,1,
GA1.4.802483189.1552234574,unregistered,Adding products from the homepage,Adding products to the cart,Clicking on a product from the shop page,go to the shop from the home screen,,,,,,,,,,,,,,,,,,,,,,1,4,100.00%,1,1,
GA1.4.811716143.1551781700,unregistered,Add to Cart Clicks,Adding products from the homepage,Adding products to the cart,,,,,,,,2030,,,,,,,,,,/my-account/,,,,,1,4,100.00%,1,1,1
GA1.4.811987565.1551664864,unregistered,Add to Cart Clicks,Adding products from the homepage,Adding products to the cart,,,,,,,,,,,,,,,,,,,,,,,1,4,100.00%,1,1,
GA1.4.812654391.1551628513,unregistered,Add to Cart Clicks,Adding products from the homepage,Adding products to the cart,Viewing the details of a product from the homepage,,,,,,,,,,,,,,,,,,,,,,1,4,100.00%,1,1,
GA1.4.813708643.1552817046,unregistered,Add to Cart Clicks,Adding products from the homepage,Adding products to the cart,,,,,,,,2029,,,,,,,,,,,,,,,1,4,100.00%,1,1,
GA1.4.856378385.1551733622,unregistered,Adding a product to the cart from the shop,Adding products from the homepage,Adding products to the cart,Go to the Checkout page,,,,,,,,,,,,,,,,,,,,,,1,4,100.00%,1,1,
GA1.4.863135766.1551484131,unregistered,Adding a product to the cart from the shop,Adding products from the homepage,Adding products to the cart,go to the shop from the home screen,,,,,,,,,,,,,,,,,,,,,,1,4,100.00%,1,1,
GA1.4.873983578.1551944221,unregistered,Add to Cart Clicks,Adding products from the homepage,Adding products to the cart,,,,,,,,,,,,,,,,,,,,,,,1,4,100.00%,1,1,
GA1.4.877635499.1552754248,unregistered,Add to Cart Clicks,Adding products from the homepage,Adding products to the cart,,,,,,,,,,,,,,,,,,,,,,,1,4,100.00%,1,1,
GA1.4.889087922.1552875003,unregistered,Adding a product to the cart from the shop,Adding products from the homepage,Adding products to the cart,go to the shop from the home screen,,,,,,,,,,,,,,,,,,,,,,1,4,100.00%,1,1,
GA1.4.903702615.1552771153,unregistered,Add to Cart Clicks,Adding products from the homepage,Adding products to the cart,,,,,,,,,,,,,,,,,,,,,,,1,4,100.00%,1,1,
GA1.4.944188776.1553262188,unregistered,Add to Cart Clicks,Adding products from the homepage,Adding products to the cart,,,,,,,,,,,,,,,,,,,,,,,1,4,100.00%,1,1,
GA1.4.949676827.1551443261,unregistered,Add to Cart Clicks,Adding products from the homepage,Adding products to the cart,,,,,,,,,,,,,,,,,,,,,,,1,4,100.00%,1,1,
GA1.4.969038136.1552776341,unregistered,Add to Cart Clicks,Adding products from the homepage,Adding products to the cart,Viewing the details of a product from the homepage,,,,,,,,,,,,,,,,,,,,,,1,4,100.00%,1,1,
GA1.4.975516476.1552148701,unregistered,Add to Cart Clicks,Adding products from the homepage,Adding products to the cart,go to the shop from the home screen,,,,,,,,,,,,,,,,,,,,,,1,4,100.00%,1,1,
GA1.4.979305349.1552272581,unregistered,Add to Cart Clicks,Adding products from the homepage,Adding products to the cart,,,,,,,,,,,,,,,,,,,,,,,1,4,100.00%,1,1,
GA1.4.979527974.1553721911,unregistered,Add to Cart Clicks,Adding products from the homepage,Adding products to the cart,Go to the Checkout page,,,,,,,,,,,,,,,,,,,,,,1,4,100.00%,1,1,
GA1.4.984325006.1552924871,unregistered,Adding products from the homepage,Adding products to the cart,Clicking on a product from the shop page,go to the shop from the home screen,,,,,,,,,,,,,,,,,,,,,,1,4,100.00%,1,1,
