ID,Product ID,Session Duration
GA1.4.323346753.1552526869,2030,0:00:59
GA1.4.1572011796.1545148593,2031,0:00:56
GA1.4.2145885929.1551676509,2027,0:00:27
GA1.4.131562338.1552473484,284,0:00:25
GA1.4.1418512394.1553221994,1542,0:00:24
GA1.4.301565858.1553395240,7,0:00:22
GA1.4.1798366339.1551898495,965,0:00:21
GA1.4.272196129.1553009997,1545,0:00:21
GA1.4.1349626962.1552429512,2029,0:00:20
GA1.4.1411278183.1552749713,466,0:00:20
GA1.4.1451521732.1553090149,2027,0:00:20
GA1.4.1454302568.1552704366,1149,0:00:20
GA1.4.1487197887.1551430899,1328,0:00:20
GA1.4.1558770172.1551592278,469,0:00:20
GA1.4.1641979461.1553441999,2031,0:00:20
GA1.4.1699406688.1553286247,2030,0:00:20
GA1.4.1818527676.1553118336,695,0:00:20
GA1.4.1978747683.1553494552,1341,0:00:20
GA1.4.343154133.1551743880,2030,0:00:20
GA1.4.358061385.1552074917,1149,0:00:20
GA1.4.507495754.1552553324,1870,0:00:20
GA1.4.618382473.1552566376,103,0:00:20
GA1.4.811716143.1551781700,2030,0:00:20
GA1.4.813708643.1552817046,2029,0:00:20
GA1.4.1260731631.1553195748,1056,0:00:19
GA1.4.1281273861.1551954670,1056,0:00:19
GA1.4.256626103.1553505228,377,0:00:19
GA1.4.654892041.1551749887,2028,0:00:19
GA1.4.1862087057.1551526799,1451,0:00:18
GA1.4.1691713639.1552451177,7,0:00:17
GA1.4.198687453.1551602281,1056,0:00:17
GA1.4.42849654.1553340873,1056,0:00:17
GA1.4.1892986240.1552658289,2031,0:00:15
GA1.4.1229911112.1553623993,2030,0:00:11
GA1.4.1556676959.1551495126,2030,0:00:11
GA1.4.1116881453.1553231074,1056,0:00:10
GA1.4.1185583954.1553352708,2031,0:00:10
GA1.4.1433802883.1552845310,2031,0:00:10
GA1.4.1483342733.1552067877,1328,0:00:10
GA1.4.1542688985.1552322312,1328,0:00:10
GA1.4.1641681222.1553225274,2027,0:00:10
GA1.4.1967798708.1552429510,2028,0:00:10
GA1.4.1967798708.1552429510,2027,0:00:10
GA1.4.2058270301.1552670214,2028,0:00:10
GA1.4.521617759.1551667206,1056,0:00:10
GA1.4.523061508.1553648303,1328,0:00:10
GA1.4.614313157.1553486085,1328,0:00:10
GA1.4.699119872.1552750266,2030,0:00:10
GA1.4.8000842.1552280882,2031,0:00:10
GA1.4.56277569.1551647094,1056,0:00:07
GA1.4.1559954439.1551421318,2029,0:00:01
GA1.4.325380568.1551484654,2031,0:00:01
